application\database\services\post\PostServiceImpl.class
application\database\services\post\PostService.class
application\initialization\UserUtils$1.class
application\initialization\initDatabases.class
application\database\repositories\UserRepository.class
application\Application.class
application\controller\UserController.class
application\database\services\user\UserServiceImpl.class
application\initialization\PostUtils.class
application\database\model\PostImpl.class
application\initialization\UserUtils.class
application\database\model\UserImpl.class
application\database\services\user\UserService.class
application\database\repositories\PostRepository.class
application\initialization\PostUtils$1.class
